{
  "phrases": {
    "shop": {
      "staticCards": "Statyczne karty",
      "animatedCards": "Animowane karty",
      "search": "Nazwa",
      "sort": {
        "priceAscending": "Cena w górę",
        "priceDescending": "Cena w dół",
        "alphabetical": "Alfabetycznie"
      },
      "unpurchasable": "Pokaż wszystko",
      "unowned": "Pokaż nieposiadane",
      "owned": "Posiadane",
      "equipped": "ZAŁOŻONE",
      "purchase": {
        "canAfford": {
          "title": "Zakup :name:",
          "desc": "Jesteś pewny, że chcesz zakupić :name: za :price:?",
          "yes": "Zakup",
          "no": "Nie"
        },
        "cantAfford": {
          "title": "Zakup :name:",
          "desc": "Nie stać Cię na :name:, to kosztuję :price:",
          "btn": "Rozumiem"
        }
      },
      "card": {
        "unpurchasable": "Niemożliwe do zakupu",
        "level": "(lvl: :level:)",
        "popup": {
          "title": "Niemożliwe do zakupu",
          "desc": "Nie możesz kupić tej karty",
          "btn": "Rozumiem"
        },
        "dontMeetRequirements": {
          "title": "Wymóg rangi",
          "desc": "Nie posiadasz własciwej rangi, aby to zakupić.",
          "btn:": "Rozumiem"
        },
        "dontMeetLevel": {
          "title": "Wymóg poziomu",
          "desc": "Musisz mieć :level: poziom, aby to zakupic.",
          "btn:": "Rozumiem"
        }
      }
    },
    "card": {
      "phrases": {
        "suicide": "Błędy zostały popelnione",
        "world": "To bolało, co?",
        "player": "Zostałeś zabity przez"
      },
      "level": "Poziom. :level:",
      "suicide": "Samobójstwo",
      "world": "Świat",
      "dmg": "Zadałeś :dealtDmg: obrażeń w :dealtHits: i otrzymałeś :receivedDmg: obrażeń w :receivedHits:.",
      "hits": {
        "singular": "trafieniu",
        "plural": "trafieniach"
      },
      "respawn": {
          "msg": "Odrodzisz się za :time:",
          "skip": {
              "msg": "Wciśnij :key: aby się odrodzić",
              "key": "SPACJA"
          },
          "plural": "sekund",
          "singular": "sekunda"
      }
    },
    "killfeed": {
      "dmg": "Zadałeś :dealtDmg: obrażeń w :dealtHits:.",
      "killed": "Zabiłeś",
      "level": "Poziom"
    }
  }
}
